acls:
  enable: false
  modify_groups: []
  modify_users: []
  ui_users: []
  view_groups: []
  view_users: []
file_systems: []
master:
  env:
    SPARK_CONF_DIR: /etc/spark3/conf
    SPARK_HOME: /usr/lib/spark3
  files:
    airflow.keytab:
      size: 0
      source: file:///pytest/path/to/airflow.keytab
      timestamp: 0
      type: FILE
      visibility: APPLICATION
  log_level: INFO
  resources:
    fpgas: 0
    gpus: 0
    memory: 4096
    vcores: 1
  script: spark3-submit --driver-cores 2 --conf spark.executorEnv.SPARK_HOME=/usr/lib/spark3
    --conf spark.executorEnv.SPARK_CONF_DIR=/etc/spark3/conf --master yarn --conf
    spark.dynamicAllocation.enabled=true --conf spark.dynamicAllocation.maxExecutors=64
    --conf spark.shuffle.service.enabled=true --conf spark.yarn.maxAppAttempts=1 --conf
    spark.yarn.appMasterEnv.SPARK_CONF_DIR=/etc/spark3/conf --conf spark.yarn.appMasterEnv.SPARK_HOME=/usr/lib/spark3
    --executor-cores 4 --executor-memory 8g --driver-memory 8g --keytab airflow.keytab
    --principal airflow --name subgraph_metrics_weekly__extract_detailed_subgraph_metrics__20220715
    --class org.wikidata.query.rdf.spark.metrics.SubgraphMetricsLauncher --queue production
    --deploy-mode cluster hdfs:///wmf/cache/artifacts/airflow/search/rdf-spark-tools-0.3.139-jar-with-dependencies.jar
    detailed-subgraph-metrics --all-subgraphs-table discovery.all_subgraphs/snapshot=20220711/wiki=wikidata
    --top-subgraph-items-table discovery.top_subgraph_items/snapshot=20220711/wiki=wikidata
    --top-subgraph-triples-table discovery.top_subgraph_triples/snapshot=20220711/wiki=wikidata
    --general-subgraph-metrics-table discovery.general_subgraph_metrics/snapshot=20220711/wiki=wikidata
    --min-items 10000 --per-subgraph-metrics-table discovery.per_subgraph_metrics/snapshot=20220711/wiki=wikidata
    --subgraph-pair-metrics-table discovery.subgraph_pair_metrics/snapshot=20220711/wiki=wikidata
max_attempts: 1
name: Airflow SparkSkeinSubmitHook skein launcher subgraph_metrics_weekly__extract_detailed_subgraph_metrics__20220715
node_label: ''
queue: production
services: {}
tags: []
user: ''
