acls:
  enable: false
  modify_groups: []
  modify_users: []
  ui_users: []
  view_groups: []
  view_users: []
file_systems: []
master:
  env:
    SPARK_CONF_DIR: /etc/spark3/conf
    SPARK_HOME: /usr/lib/spark3
  files:
    airflow.keytab:
      size: 0
      source: file:///pytest/path/to/airflow.keytab
      timestamp: 0
      type: FILE
      visibility: APPLICATION
  log_level: INFO
  resources:
    fpgas: 0
    gpus: 0
    memory: 4096
    vcores: 1
  script: spark3-submit --driver-cores 2 --conf spark.executorEnv.SPARK_HOME=/usr/lib/spark3
    --conf spark.executorEnv.SPARK_CONF_DIR=/etc/spark3/conf --master yarn --conf
    spark.dynamicAllocation.enabled=true --conf spark.dynamicAllocation.maxExecutors=25
    --conf spark.shuffle.service.enabled=true --conf spark.yarn.maxAppAttempts=1 --conf
    spark.yarn.appMasterEnv.SPARK_CONF_DIR=/etc/spark3/conf --conf spark.yarn.appMasterEnv.SPARK_HOME=/usr/lib/spark3
    --executor-cores 8 --executor-memory 16g --driver-memory 4g --keytab airflow.keytab
    --principal airflow --name wdqs_streaming_updater_reconcile_hourly__reconcile__20240220
    --class org.wikidata.query.rdf.updater.reconcile.UpdaterReconcile --queue production
    --deploy-mode cluster hdfs:///wmf/cache/artifacts/airflow/search/rdf-spark-tools-0.3.139-jar-with-dependencies.jar
    --domain www.wikidata.org --reconciliation-source 'wdqs_sideoutputs_reconcile@$DC$'
    --event-gate https://eventgate-main.discovery.wmnet:4492/v1/events --late-events-partition
    event.rdf_streaming_updater_lapsed_action/year=2024/month=2/day=20/hour=9 --failures-partition
    event.rdf_streaming_updater_fetch_failure/year=2024/month=2/day=20/hour=9 --inconsistencies-partition
    event.rdf_streaming_updater_state_inconsistency/year=2024/month=2/day=20/hour=9
    --stream rdf-streaming-updater.reconcile --entity-namespaces 0,120,146 --initial-to-namespace
    Q=,P=Property,L=Lexeme --http-routes www.wikidata.org=https://api-ro.discovery.wmnet,commons.wikimedia.org=https://api-ro.discovery.wmnet
max_attempts: 1
name: Airflow SparkSkeinSubmitHook skein launcher wdqs_streaming_updater_reconcile_hourly__reconcile__20240220
node_label: ''
queue: production
services: {}
tags: []
user: ''
