acls:
  enable: false
  modify_groups: []
  modify_users: []
  ui_users: []
  view_groups: []
  view_users: []
file_systems: []
master:
  env:
    SPARK_CONF_DIR: /etc/spark3/conf
    SPARK_HOME: /usr/lib/spark3
  files:
    airflow.keytab:
      size: 0
      source: file:///pytest/path/to/airflow.keytab
      timestamp: 0
      type: FILE
      visibility: APPLICATION
  log_level: INFO
  resources:
    fpgas: 0
    gpus: 0
    memory: 15259
    vcores: 2
  script: spark3-submit --driver-cores 2 --conf spark.executorEnv.SPARK_HOME=/usr/lib/spark3
    --conf spark.executorEnv.SPARK_CONF_DIR=/etc/spark3/conf --master yarn --conf
    spark.dynamicAllocation.maxExecutors=128 --conf spark.executor.memoryOverhead=2048
    --conf spark.hadoop.fs.permissions.umask-mode=022 --conf spark.yarn.appMasterEnv.SPARK_CONF_DIR=/etc/spark3/conf
    --conf spark.yarn.appMasterEnv.SPARK_HOME=/usr/lib/spark3 --executor-cores 2 --executor-memory
    8G --driver-memory 16G --keytab airflow.keytab --principal airflow --name edit_hourly__process_edit_hourly__20230401
    --class org.apache.spark.sql.hive.thriftserver.WMFSparkSQLCLIDriver --queue production
    --deploy-mode client hdfs:///wmf/cache/artifacts/airflow/analytics/wmf-sparksqlclidriver-1.0.0.jar
    -f hdfs://analytics-hadoop/wmf/refinery/current/hql/edit/edit_hourly.hql -d source_table=wmf.mediawiki_history
    -d wiki_map_table=canonical_data.wikis -d destination_table=wmf.edit_hourly -d
    snapshot=2023-03 -d coalesce_partitions=64
max_attempts: 1
name: Airflow SparkSkeinSubmitHook skein launcher edit_hourly__process_edit_hourly__20230401
node_label: ''
queue: production
services: {}
tags: []
user: ''
