acls:
  enable: false
  modify_groups: []
  modify_users: []
  ui_users: []
  view_groups: []
  view_users: []
file_systems: []
master:
  env:
    SPARK_CONF_DIR: /etc/spark3/conf
    SPARK_HOME: /usr/lib/spark3
  files:
    airflow.keytab:
      size: 0
      source: file:///pytest/path/to/airflow.keytab
      timestamp: 0
      type: FILE
      visibility: APPLICATION
  log_level: INFO
  resources:
    fpgas: 0
    gpus: 0
    memory: 1908
    vcores: 1
  script: spark3-submit --driver-cores 1 --conf spark.executorEnv.SPARK_HOME=/usr/lib/spark3
    --conf spark.executorEnv.SPARK_CONF_DIR=/etc/spark3/conf --master yarn --conf
    spark.sql.catalog.aqs=com.datastax.spark.connector.datasource.CassandraCatalog
    --conf spark.sql.catalog.aqs.spark.cassandra.connection.host=aqs1010-a.eqiad.wmnet:9042,aqs1011-a.eqiad.wmnet:9042,aqs1012-a.eqiad.wmnet:9042
    --conf spark.sql.catalog.aqs.spark.cassandra.auth.username=aqsloader --conf spark.sql.catalog.aqs.spark.cassandra.auth.password=cassandra
    --conf spark.sql.catalog.aqs.spark.cassandra.output.batch.size.rows=1024 --conf
    spark.dynamicAllocation.enabled=true --conf spark.dynamicAllocation.maxExecutors=16
    --conf spark.shuffle.service.enabled=true --conf spark.yarn.maxAppAttempts=1 --conf
    spark.yarn.appMasterEnv.SPARK_CONF_DIR=/etc/spark3/conf --conf spark.yarn.appMasterEnv.SPARK_HOME=/usr/lib/spark3
    --jars hdfs:///wmf/cache/artifacts/airflow/analytics/spark-cassandra-connector-assembly-3.2.0-WMF-1.jar,hdfs:///wmf/cache/artifacts/airflow/analytics/refinery-job-0.2.17-shaded.jar
    --executor-cores 1 --executor-memory 2G --driver-memory 2G --keytab airflow.keytab
    --principal airflow --name mediawiki_history_shapshot_config__load_cassandra__20240301
    --class org.apache.spark.sql.hive.thriftserver.WMFSparkSQLCLIDriver --queue production
    --deploy-mode client hdfs:///wmf/cache/artifacts/airflow/analytics/wmf-sparksqlclidriver-1.0.0.jar
    -f hdfs://analytics-hadoop/wmf/refinery/current/hql/cassandra/load_cassandra_aqs_config.hql
    -d property_name=mediawiki_history_reduced_druid_datasource -d property_value=mediawiki_history_reduced_2024_02
    -d aqs_config_table=aqs.aqs.config
max_attempts: 1
name: Airflow SparkSkeinSubmitHook skein launcher mediawiki_history_shapshot_config__load_cassandra__20240301
node_label: ''
queue: production
services: {}
tags: []
user: ''
