acls:
  enable: false
  modify_groups: []
  modify_users: []
  ui_users: []
  view_groups: []
  view_users: []
file_systems: []
master:
  env:
    SPARK_CONF_DIR: /etc/spark3/conf
    SPARK_HOME: /usr/lib/spark3
  files:
    airflow.keytab:
      size: 0
      source: file:///pytest/path/to/airflow.keytab
      timestamp: 0
      type: FILE
      visibility: APPLICATION
  log_level: INFO
  resources:
    fpgas: 0
    gpus: 0
    memory: 3815
    vcores: 2
  script: spark3-submit --driver-cores 2 --conf spark.executorEnv.SPARK_HOME=/usr/lib/spark3
    --conf spark.executorEnv.SPARK_CONF_DIR=/etc/spark3/conf --master yarn --conf
    spark.dynamicAllocation.maxExecutors=64 --conf spark.yarn.executor.memoryOverhead=2048
    --conf spark.sql.shuffle.partitions=512 --conf spark.yarn.appMasterEnv.SPARK_CONF_DIR=/etc/spark3/conf
    --conf spark.yarn.appMasterEnv.SPARK_HOME=/usr/lib/spark3 --executor-cores 2 --executor-memory
    8G --driver-memory 4G --keytab airflow.keytab --principal airflow --name unique_devices_per_project_family_monthly__compute_per_project_family_monthly__20231201
    --class org.apache.spark.sql.hive.thriftserver.WMFSparkSQLCLIDriver --queue production
    --deploy-mode client hdfs:///wmf/cache/artifacts/airflow/analytics/wmf-sparksqlclidriver-1.0.0.jar
    -f hdfs://analytics-hadoop/wmf/refinery/current/hql/unique_devices/per_project_family/unique_devices_per_project_family_monthly.hql
    -d source_table=wmf.pageview_actor -d destination_table=wmf.unique_devices_per_project_family_monthly
    -d countries_table=canonical_data.countries -d year=2023 -d month=11 -d day=1
    -d coalesce_partitions=1
max_attempts: 1
name: Airflow SparkSkeinSubmitHook skein launcher unique_devices_per_project_family_monthly__compute_per_project_family_monthly__20231201
node_label: ''
queue: production
services: {}
tags: []
user: ''
