acls:
  enable: false
  modify_groups: []
  modify_users: []
  ui_users: []
  view_groups: []
  view_users: []
file_systems: []
master:
  env:
    SPARK_CONF_DIR: /etc/spark3/conf
    SPARK_HOME: /usr/lib/spark3
  files:
    airflow.keytab:
      size: 0
      source: file:///pytest/path/to/airflow.keytab
      timestamp: 0
      type: FILE
      visibility: APPLICATION
  log_level: INFO
  resources:
    fpgas: 0
    gpus: 0
    memory: 3815
    vcores: 2
  script: spark3-submit --driver-cores 2 --conf spark.executorEnv.SPARK_HOME=/usr/lib/spark3
    --conf spark.executorEnv.SPARK_CONF_DIR=/etc/spark3/conf --master yarn --conf
    spark.dynamicAllocation.maxExecutors=16 --conf spark.executor.memoryOverhead=2048
    --conf spark.yarn.appMasterEnv.SPARK_CONF_DIR=/etc/spark3/conf --conf spark.yarn.appMasterEnv.SPARK_HOME=/usr/lib/spark3
    --executor-cores 4 --executor-memory 8G --driver-memory 4G --keytab airflow.keytab
    --principal airflow --name druid_load_banner_activity_minutely_aggregated_daily__format_data_to_load__20230517
    --class org.apache.spark.sql.hive.thriftserver.WMFSparkSQLCLIDriver --queue production
    --deploy-mode client hdfs:///wmf/cache/artifacts/airflow/analytics/wmf-sparksqlclidriver-1.0.0.jar
    -f hdfs://analytics-hadoop/wmf/refinery/current/hql/druid_load/generate_daily_druid_banner_activity.hql
    -d source_table=wmf.webrequest -d destination_table=tmp.tmp_druid_load_banner_activity_minutely_aggregated_daily_20230516
    -d destination_directory=hdfs://analytics-hadoop/wmf/tmp/druid/druid_load_banner_activity_minutely_aggregated_daily/20230516
    -d coalesce_partitions=1 -d year=2023 -d month=5 -d day=16
max_attempts: 1
name: Airflow SparkSkeinSubmitHook skein launcher druid_load_banner_activity_minutely_aggregated_daily__format_data_to_load__20230517
node_label: ''
queue: production
services: {}
tags: []
user: ''
