acls:
  enable: false
  modify_groups: []
  modify_users: []
  ui_users: []
  view_groups: []
  view_users: []
file_systems: []
master:
  env:
    SPARK_CONF_DIR: /etc/spark3/conf
    SPARK_HOME: /usr/lib/spark3
  files:
    airflow.keytab:
      size: 0
      source: file:///pytest/path/to/airflow.keytab
      timestamp: 0
      type: FILE
      visibility: APPLICATION
  log_level: INFO
  resources:
    fpgas: 0
    gpus: 0
    memory: 3815
    vcores: 2
  script: spark3-submit --driver-cores 2 --conf spark.executorEnv.SPARK_HOME=/usr/lib/spark3
    --conf spark.executorEnv.SPARK_CONF_DIR=/etc/spark3/conf --master yarn --conf
    spark.dynamicAllocation.enabled=true --conf spark.dynamicAllocation.maxExecutors=16
    --conf spark.shuffle.service.enabled=true --conf spark.yarn.maxAppAttempts=1 --conf
    spark.yarn.appMasterEnv.SPARK_CONF_DIR=/etc/spark3/conf --conf spark.yarn.appMasterEnv.SPARK_HOME=/usr/lib/spark3
    --executor-cores 2 --executor-memory 4G --driver-memory 4G --keytab airflow.keytab
    --principal airflow --name browser_metrics_weekly__compute_all_sites_by_os_family_and_major_percent__20240421
    --class org.apache.spark.sql.hive.thriftserver.WMFSparkSQLCLIDriver --queue production
    --deploy-mode client hdfs:///wmf/cache/artifacts/airflow/analytics/wmf-sparksqlclidriver-1.0.0.jar
    -f hdfs://analytics-hadoop/wmf/refinery/current/hql/reports/browser_metrics/all_sites_by_os_family_and_major_percent.hql
    -d source_table=wmf_traffic.browser_general -d destination_directory=hdfs://analytics-hadoop/wmf/tmp/analytics/reports/browser/all_sites_by_os_family_and_major_percent_2024-04-21
    -d start_date=2015-06-07 -d end_date=2024-04-21
max_attempts: 1
name: Airflow SparkSkeinSubmitHook skein launcher browser_metrics_weekly__compute_all_sites_by_os_family_and_major_percent__20240421
node_label: ''
queue: production
services: {}
tags: []
user: ''
