acls:
  enable: false
  modify_groups: []
  modify_users: []
  ui_users: []
  view_groups: []
  view_users: []
file_systems: []
master:
  env:
    SPARK_CONF_DIR: /etc/spark3/conf
    SPARK_HOME: /usr/lib/spark3
  files:
    airflow.keytab:
      size: 0
      source: file:///pytest/path/to/airflow.keytab
      timestamp: 0
      type: FILE
      visibility: APPLICATION
  log_level: INFO
  resources:
    fpgas: 0
    gpus: 0
    memory: 3815
    vcores: 2
  script: spark3-submit --driver-cores 2 --conf spark.executorEnv.SPARK_HOME=/usr/lib/spark3
    --conf spark.executorEnv.SPARK_CONF_DIR=/etc/spark3/conf --master yarn --conf
    spark.dynamicAllocation.enabled=true --conf spark.dynamicAllocation.maxExecutors=16
    --conf spark.shuffle.service.enabled=true --conf spark.yarn.maxAppAttempts=1 --conf
    spark.yarn.appMasterEnv.SPARK_CONF_DIR=/etc/spark3/conf --conf spark.yarn.appMasterEnv.SPARK_HOME=/usr/lib/spark3
    --executor-cores 2 --executor-memory 4G --driver-memory 4G --keytab airflow.keytab
    --principal airflow --name pingback_report_weekly_v2__compute_machine__20230917
    --class org.apache.spark.sql.hive.thriftserver.WMFSparkSQLCLIDriver --queue production
    --deploy-mode client hdfs:///wmf/cache/artifacts/airflow/analytics/wmf-sparksqlclidriver-1.0.0.jar
    -f hdfs://analytics-hadoop/wmf/refinery/current/hql/reports/pingback/machine.hql
    -d source_table=event_sanitized.mediawikipingback -d agg_results_path=hdfs://analytics-hadoop/wmf/data/published/datasets/periodic/reports/metrics/pingback/machine.tsv
    -d destination_dir=hdfs://analytics-hadoop/wmf/tmp/analytics/reports/pingback/tmp/machine_2023-09-10
    -d start_date=2023-09-10 -d end_date=2023-09-17
max_attempts: 1
name: Airflow SparkSkeinSubmitHook skein launcher pingback_report_weekly_v2__compute_machine__20230917
node_label: ''
queue: production
services: {}
tags: []
user: ''
