acls:
  enable: false
  modify_groups: []
  modify_users: []
  ui_users: []
  view_groups: []
  view_users: []
file_systems: []
master:
  env:
    PYSPARK_DRIVER_PYTHON: venv/bin/python
    PYSPARK_PYTHON: venv/bin/python
    SPARK_CONF_DIR: /etc/spark3/conf
    SPARK_HOME: /usr/lib/spark3
  files:
    airflow.keytab:
      size: 0
      source: file:///pytest/path/to/airflow.keytab
      timestamp: 0
      type: FILE
      visibility: APPLICATION
    venv:
      size: 0
      source: hdfs:///wmf/cache/artifacts/airflow/research/revert_risk_datasets.tgz
      timestamp: 0
      type: ARCHIVE
      visibility: APPLICATION
  log_level: INFO
  resources:
    fpgas: 0
    gpus: 0
    memory: 7630
    vcores: 2
  script: spark3-submit --driver-cores 2 --conf spark.executorEnv.PYSPARK_DRIVER_PYTHON=venv/bin/python
    --conf spark.executorEnv.PYSPARK_PYTHON=venv/bin/python --conf spark.executorEnv.SPARK_HOME=/usr/lib/spark3
    --conf spark.executorEnv.SPARK_CONF_DIR=/etc/spark3/conf --master yarn --conf
    spark.sql.sources.partitionOverwriteMode=dynamic --conf spark.sql.shuffle.partitions=4096
    --conf spark.sql.adaptive.enabled=true --conf spark.shuffle.io.maxRetries=10 --conf
    spark.task.maxFailures=10 --conf spark.dynamicAllocation.maxExecutors=98 --conf
    spark.executor.memoryOverhead=4G --conf spark.yarn.appMasterEnv.SPARK_CONF_DIR=/etc/spark3/conf
    --conf spark.yarn.appMasterEnv.SPARK_HOME=/usr/lib/spark3 --conf spark.yarn.appMasterEnv.PYSPARK_PYTHON=venv/bin/python
    --conf spark.yarn.appMasterEnv.PYSPARK_DRIVER_PYTHON=venv/bin/python --archives
    'hdfs:///wmf/cache/artifacts/airflow/research/revert_risk_datasets.tgz#venv' --executor-cores
    2 --executor-memory 24G --driver-memory 8G --keytab airflow.keytab --principal
    airflow --name revert_risk_multilingual_dataset__generate_dataset_3__20231001
    --queue production --deploy-mode client venv/bin/revert_risk_datasets_multilingual.py
    --snapshot 2023-09 --wikis arwiki,azwiki,bgwiki,bnwiki,cawiki,cswiki,dawiki,elwiki,eowiki,etwiki,euwiki,fawiki,fiwiki,hewiki,hiwiki,hrwiki,huwiki,hywiki,idwiki,kawiki,kowiki,ltwiki,lvwiki,mswiki,nlwiki,nowiki,rowiki,simplewiki,skwiki,slwiki,srwiki,svwiki,tawiki,thwiki,trwiki,ukwiki,urwiki,uzwiki,viwiki
    --start-time 2023-09-01 --end-time 2023-10-01 --output /tmp/research/revert_risk_datasets/multilingual/20230901_20231001
max_attempts: 1
name: Airflow SparkSkeinSubmitHook skein launcher revert_risk_multilingual_dataset__generate_dataset_3__20231001
node_label: ''
queue: production
services: {}
tags: []
user: ''
